%YAML 1.1
%TAG !u! tag:unity3d.com,2011:
--- !u!1001 &8813574409117576664
PrefabInstance:
  m_ObjectHideFlags: 0
  serializedVersion: 2
  m_Modification:
    m_TransformParent: {fileID: 0}
    m_Modifications:
    - target: {fileID: 4100231649716701904, guid: 1b3fce6cf5a91a8409152548b54835c6,
        type: 3}
      propertyPath: m_LocalPosition.x
      value: 0
      objectReference: {fileID: 0}
    - target: {fileID: 4100231649716701904, guid: 1b3fce6cf5a91a8409152548b54835c6,
        type: 3}
      propertyPath: m_LocalPosition.y
      value: 0
      objectReference: {fileID: 0}
    - target: {fileID: 4100231649716701904, guid: 1b3fce6cf5a91a8409152548b54835c6,
        type: 3}
      propertyPath: m_LocalPosition.z
      value: 0
      objectReference: {fileID: 0}
    - target: {fileID: 4100231649716701904, guid: 1b3fce6cf5a91a8409152548b54835c6,
        type: 3}
      propertyPath: m_LocalRotation.x
      value: 0
      objectReference: {fileID: 0}
    - target: {fileID: 4100231649716701904, guid: 1b3fce6cf5a91a8409152548b54835c6,
        type: 3}
      propertyPath: m_LocalRotation.y
      value: 0
      objectReference: {fileID: 0}
    - target: {fileID: 4100231649716701904, guid: 1b3fce6cf5a91a8409152548b54835c6,
        type: 3}
      propertyPath: m_LocalRotation.z
      value: 0
      objectReference: {fileID: 0}
    - target: {fileID: 4100231649716701904, guid: 1b3fce6cf5a91a8409152548b54835c6,
        type: 3}
      propertyPath: m_LocalRotation.w
      value: 1
      objectReference: {fileID: 0}
    - target: {fileID: 4100231649716701904, guid: 1b3fce6cf5a91a8409152548b54835c6,
        type: 3}
      propertyPath: m_RootOrder
      value: 0
      objectReference: {fileID: 0}
    - target: {fileID: 4100231649716701904, guid: 1b3fce6cf5a91a8409152548b54835c6,
        type: 3}
      propertyPath: m_LocalEulerAnglesHint.x
      value: 0
      objectReference: {fileID: 0}
    - target: {fileID: 4100231649716701904, guid: 1b3fce6cf5a91a8409152548b54835c6,
        type: 3}
      propertyPath: m_LocalEulerAnglesHint.y
      value: 0
      objectReference: {fileID: 0}
    - target: {fileID: 4100231649716701904, guid: 1b3fce6cf5a91a8409152548b54835c6,
        type: 3}
      propertyPath: m_LocalEulerAnglesHint.z
      value: 0
      objectReference: {fileID: 0}
    - target: {fileID: 4100231649716701905, guid: 1b3fce6cf5a91a8409152548b54835c6,
        type: 3}
      propertyPath: _playerPrefab
      value: 
      objectReference: {fileID: 8592522695148171444, guid: 536c7395bdbb8e644956319b3006a13d,
        type: 3}
    - target: {fileID: 4100231649716701905, guid: 1b3fce6cf5a91a8409152548b54835c6,
        type: 3}
      propertyPath: _playerPrefab._value
      value: 
      objectReference: {fileID: 8592522695148171444, guid: 536c7395bdbb8e644956319b3006a13d,
        type: 3}
    - target: {fileID: 4100231649716701905, guid: 1b3fce6cf5a91a8409152548b54835c6,
        type: 3}
      propertyPath: _godPrefab._value
      value: 
      objectReference: {fileID: 1826691162654739188, guid: 494a46405560ba9498070ce03051808e,
        type: 3}
    - target: {fileID: 4100231649716701906, guid: 1b3fce6cf5a91a8409152548b54835c6,
        type: 3}
      propertyPath: m_Materials.Array.data[0]
      value: 
      objectReference: {fileID: 2100000, guid: c27fb30b2e9b531489ebc2f85c0390a8, type: 2}
    - target: {fileID: 4100231649716701916, guid: 1b3fce6cf5a91a8409152548b54835c6,
        type: 3}
      propertyPath: m_Name
      value: Thor Swapper
      objectReference: {fileID: 0}
    m_RemovedComponents: []
  m_SourcePrefab: {fileID: 100100000, guid: 1b3fce6cf5a91a8409152548b54835c6, type: 3}
