%YAML 1.1
%TAG !u! tag:unity3d.com,2011:
--- !u!114 &11400000
MonoBehaviour:
  m_ObjectHideFlags: 0
  m_CorrespondingSourceObject: {fileID: 0}
  m_PrefabInstance: {fileID: 0}
  m_PrefabAsset: {fileID: 0}
  m_GameObject: {fileID: 0}
  m_Enabled: 1
  m_EditorHideFlags: 0
  m_Script: {fileID: 11500000, guid: becae788e0d900c46b143055d098e683, type: 3}
  m_Name: StandardGrabbableSFX
  m_EditorClassIdentifier: 
  _developerDescription: The SFX that plays when the player grabs a wall.
  _id: 
  _value:
    _audioClip: {fileID: 8300000, guid: a09aeb5b894f0ca44b8be8bead08e66d, type: 3}
    _volume: 1
