%YAML 1.1
%TAG !u! tag:unity3d.com,2011:
--- !u!114 &11400000
MonoBehaviour:
  m_ObjectHideFlags: 0
  m_CorrespondingSourceObject: {fileID: 0}
  m_PrefabInstance: {fileID: 0}
  m_PrefabAsset: {fileID: 0}
  m_GameObject: {fileID: 0}
  m_Enabled: 1
  m_EditorHideFlags: 0
  m_Script: {fileID: 11500000, guid: d94ea0da909475447a84267e53640043, type: 3}
  m_Name: OnGodRemoved
  m_EditorClassIdentifier: 
  _developerDescription: Called when a god is removed from the list.
  _replayBufferSize: 1
  _inspectorRaiseValue:
    _godObject: {fileID: 0}
    _followTarget: {fileID: 0}
    _weaponBody: {fileID: 0}
    _ragdollExploder: {fileID: 0}
