%YAML 1.1
%TAG !u! tag:unity3d.com,2011:
--- !u!1001 &2985436201285358116
PrefabInstance:
  m_ObjectHideFlags: 0
  serializedVersion: 2
  m_Modification:
    m_TransformParent: {fileID: 0}
    m_Modifications:
    - target: {fileID: 2181361140694739229, guid: c47d4cee5bbca0e478efd570acbf1d8a,
        type: 3}
      propertyPath: m_textInfo.characterCount
      value: 6
      objectReference: {fileID: 0}
    - target: {fileID: 8271046174145610260, guid: c47d4cee5bbca0e478efd570acbf1d8a,
        type: 3}
      propertyPath: m_Name
      value: Main Menu Button
      objectReference: {fileID: 0}
    - target: {fileID: 8271046174145610261, guid: c47d4cee5bbca0e478efd570acbf1d8a,
        type: 3}
      propertyPath: m_LocalPosition.x
      value: 0
      objectReference: {fileID: 0}
    - target: {fileID: 8271046174145610261, guid: c47d4cee5bbca0e478efd570acbf1d8a,
        type: 3}
      propertyPath: m_LocalPosition.y
      value: 0
      objectReference: {fileID: 0}
    - target: {fileID: 8271046174145610261, guid: c47d4cee5bbca0e478efd570acbf1d8a,
        type: 3}
      propertyPath: m_RootOrder
      value: 0
      objectReference: {fileID: 0}
    - target: {fileID: 8271046174145610261, guid: c47d4cee5bbca0e478efd570acbf1d8a,
        type: 3}
      propertyPath: m_LocalEulerAnglesHint.x
      value: 0
      objectReference: {fileID: 0}
    - target: {fileID: 8271046174145610261, guid: c47d4cee5bbca0e478efd570acbf1d8a,
        type: 3}
      propertyPath: m_LocalEulerAnglesHint.y
      value: 0
      objectReference: {fileID: 0}
    - target: {fileID: 8271046174145610261, guid: c47d4cee5bbca0e478efd570acbf1d8a,
        type: 3}
      propertyPath: m_LocalEulerAnglesHint.z
      value: 0
      objectReference: {fileID: 0}
    m_RemovedComponents: []
  m_SourcePrefab: {fileID: 100100000, guid: c47d4cee5bbca0e478efd570acbf1d8a, type: 3}
