%YAML 1.1
%TAG !u! tag:unity3d.com,2011:
--- !u!114 &11400000
MonoBehaviour:
  m_ObjectHideFlags: 0
  m_CorrespondingSourceObject: {fileID: 0}
  m_PrefabInstance: {fileID: 0}
  m_PrefabAsset: {fileID: 0}
  m_GameObject: {fileID: 0}
  m_Enabled: 1
  m_EditorHideFlags: 0
  m_Script: {fileID: 11500000, guid: e9ac906e10402974496e66765c4d6c1a, type: 3}
  m_Name: OnPlayedAdded
  m_EditorClassIdentifier: 
  _developerDescription: Called when a Player is added to the Player List
  _replayBufferSize: 1
  _inspectorRaiseValue: {fileID: 0}
